{
	"commentStamp" : "TimM 8/7/2017 16:15",
	"super" : "BaselineOf",
	"category" : "BaselineOfLambdaPrerequisites",
	"classinstvars" : [ ],
	"pools" : [ ],
	"classvars" : [ ],
	"instvars" : [ ],
	"name" : "BaselineOfLambdaPrerequisites",
	"type" : "normal"
}